{
	"info": {
		"_postman_id": "19047b7c-fe34-43e3-93ea-c32c45f38269",
		"name": "Inventario",
		"schema": "https://schema.getpostman.com/json/collection/v2.1.0/collection.json"
	},
	"item": [
		{
			"name": "http://localhost:8080/api/inventario/",
			"request": {
				"method": "GET",
				"header": [],
				"url": {
					"raw": "http://localhost:8080/api/inventario/",
					"protocol": "http",
					"host": [
						"localhost"
					],
					"port": "8080",
					"path": [
						"api",
						"inventario",
						""
					]
				}
			},
			"response": []
		},
		{
			"name": "http://localhost:8080/api/inventario/novo",
			"request": {
				"method": "POST",
				"header": [
					{
						"key": "Content-Type",
						"name": "Content-Type",
						"value": "application/json",
						"type": "text"
					}
				],
				"body": {
					"mode": "raw",
					"raw": "{\n\t\"tamanho\": 20\n}\n"
				},
				"url": {
					"raw": "http://localhost:8080/api/inventario/novo",
					"protocol": "http",
					"host": [
						"localhost"
					],
					"port": "8080",
					"path": [
						"api",
						"inventario",
						"novo"
					]
				}
			},
			"response": []
		},
		{
			"name": "http://localhost:8080/api/inventario/editar/1",
			"request": {
				"method": "PUT",
				"header": [
					{
						"key": "Content-Type",
						"name": "Content-Type",
						"value": "application/json",
						"type": "text"
					}
				],
				"body": {
					"mode": "raw",
					"raw": "{\n\t\"tamanho\": 20\n}"
				},
				"url": {
					"raw": "http://localhost:8080/api/inventario/editar/1",
					"protocol": "http",
					"host": [
						"localhost"
					],
					"port": "8080",
					"path": [
						"api",
						"inventario",
						"editar",
						"1"
					]
				}
			},
			"response": []
		},
		{
			"name": "http://localhost:8080/api/inventario/deletar/1",
			"request": {
				"method": "DELETE",
				"header": [],
				"url": {
					"raw": "http://localhost:8080/api/inventario/deletar/1",
					"protocol": "http",
					"host": [
						"localhost"
					],
					"port": "8080",
					"path": [
						"api",
						"inventario",
						"deletar",
						"1"
					]
				}
			},
			"response": []
		}
	]
}