<?xml version="1.0" encoding="utf-8" ?>
<!-- SQL XML created by WWW SQL Designer, https://github.com/ondras/wwwsqldesigner/ -->
<!-- Active URL: https://ondras.zarovi.cz/sql/demo/?keyword=default -->
<sql>
<datatypes db="mysql">
		<group color="rgb(238,238,170)" label="Integer">
			<type label="TinyInt" quote="" sql="tinyint" length="0" re="INT" bytes="1" note="Integer data: 0 to 255"/>
			<type label="SmallInt" quote="" sql="smallint" length="0" re="INT" bytes="2" note="Integer data: -32,768 to 32,767"/>
			<type label="Int" quote="" sql="int" length="0" re="INT" bytes="4" note="Integer data: -2,147,483,648 to 2,147,483,647"/>
			<type label="BigInt" quote="" sql="bigint" length="0" re="INT" bytes="8" note="Integer data: -9,223,372,036,854,775,808 to 9,223,372,036,854,775,807"/>
		</group>

		<group color="rgb(238,238,170)" label="Monetary">
			<type label="Money" quote="" sql="money" length="0" re="FLOAT" bytes="8" note="Integer data: -922,337,203,685,477.5808 to 922,337,203,685,477.5807"/>
			<type label="SmallMoney" quote="" sql="smallmoney" length="0" re="FLOAT" bytes="4" note="-214,748.3648 to 214,748.3647"/>
		</group>

		<group color="rgb(238,238,170)" label="Numeric">
			<type label="Real" quote="" sql="real" length="0" re="FLOAT" bytes="4" note="Floating precision number data: -3.402823E+38 to 3.402823E+38"/>
			<type label="Float" quote="" sql="float" length="0" re="FLOAT" bytes="8" note="Floating precision number data: -4.94E+324 to 4.94E+324"/>
			<type label="Decimal" quote="" sql="decimal" length="1" re="DEC" bytes="n*" note="Fixed precision and scale numeric data: -10^38 +1 to 10^38 -1 (decimal and numeric are synonyms)"/>
			<type label="Numeric" quote="" sql="numeric" length="1" re="DEC" bytes="n*" note="Fixed precision and scale numeric data: -10^38 +1 to 10^38 -1 (decimal and numeric are synonyms)"/>
		</group>

		<group color="rgb(255,200,200)" label="Character">
			<type label="Char" quote="'" sql="char" length="0" bytes="n" note="Fixed-length character data with a maximum length of 8,000 characters"/>
			<type label="Varchar" quote="'" sql="varchar" length="1" bytes="m &lt;= n" note="Variable-length data with a maximum of 8,000 characters"/>
			<type label="Text" quote="'" sql="text" length="1" bytes="&lt;= 2,147,483,647" note="Variable-length data with a maximum length of 2,147,483,647 characters"/>
			<type label="XML" quote="'" sql="xml" length="0" bytes="n" note="XML"/>
		</group>

		<group color="rgb(255,200,200)" label="Unicode Character">
			<type label="nChar" quote="'" sql="nchar" length="0" bytes="n" note="Fixed-length Unicode data with a maximum length of 4,000 characters"/>
			<type label="nVarchar" quote="'" sql="nvarchar" length="1" bytes="m &lt;= n" note="Variable-length Unicode data with a maximum length of 4,000 characters"/>
			<type label="nText" quote="'" sql="ntext" length="1" bytes="&lt;= 2,147,483,647" note="Variable-length Unicode data with a maximum length of 1,073,741,823 characters"/>
		</group>


		<group color="rgb(200,255,200)" label="Date &amp; Time">
			<type label="Datetime" quote="" sql="datetime" length="0" bytes="8" note="Jan 1, 1753 to Dec 31, 9999"/>
			<type label="SmallDateTime" quote="" sql="smalldatetime" length="0" bytes="4" note="Jan 1, 1900 to Dec 31, 2079"/>
		</group>

		<group color="rgb(200,200,255)" label="Binary">
			<type label="Binary" quote="'" sql="binary" length="0" bytes="n" note="Fixed-length binary data with a maximum length of 8,000 bytes"/>
			<type label="Varbinary" quote="'" sql="varbinary" length="1" bytes="m &lt;= n" note="Variable-length binary data with a maximum length of 8,000 bytes"/>
		</group>

		<group color="rgb(200,220,255)" label="Miscellaneous">
			<type label="Bit" quote="" sql="bit" length="0" bytes="1" note="Boolean: 1 or 0"/>
			<type label="Image" quote="" sql="image" length="1" re="BLOB" bytes="0 to 2,147,483,647" note="Variable-length binary data with a maximum length of 2,147,483,647 bytes"/>
			<type label="Timestamp" quote="" sql="timestamp" length="0" bytes="8" note="Locally unique binary number updated as a row gets updated"/>
			<type label="SQL Variant" quote="" sql="sql_variant" length="1" bytes="" note="Stores any datatype except text, ntext, image, timestamp"/>
			<type label="Uniqueidentifier" quote="" sql="uniqueidentifier" length="1" bytes="16" note="GUID"/>
		</group>
	</datatypes><table x="300" y="100" name="Personagem">
<row name="id" null="1" autoincrement="1">
<datatype>tinyint</datatype>
<default>NULL</default></row>
<row name="nome" null="0" autoincrement="0">
<datatype>varchar(100)</datatype>
<default>'NULL'</default></row>
<row name="vida" null="0" autoincrement="0">
<datatype>int</datatype>
<default>NULL</default></row>
<row name="experiencia" null="1" autoincrement="0">
<datatype>tinyint</datatype>
<default>NULL</default></row>
<row name="inventario" null="1" autoincrement="0">
<datatype>tinyint</datatype>
<default>NULL</default></row>
<row name="id_Inventario" null="1" autoincrement="0">
<datatype>tinyint</datatype>
<default>NULL</default><relation table="Inventario" row="id" />
</row>
<key type="PRIMARY" name="">
<part>id</part>
</key>
</table>
<table x="615" y="110" name="Elfo">
<row name="id" null="1" autoincrement="1">
<datatype>tinyint</datatype>
<default>NULL</default></row>
<row name="id_Personagem" null="1" autoincrement="0">
<datatype>tinyint</datatype>
<default>NULL</default><relation table="Personagem" row="id" />
</row>
<key type="PRIMARY" name="">
<part>id</part>
</key>
</table>
<table x="630" y="300" name="Dwarf">
<row name="id" null="1" autoincrement="1">
<datatype>tinyint</datatype>
<default>NULL</default></row>
<row name="id_Personagem" null="1" autoincrement="0">
<datatype>tinyint</datatype>
<default>NULL</default><relation table="Personagem" row="id" />
</row>
<key type="PRIMARY" name="">
<part>id</part>
</key>
</table>
<table x="216" y="346" name="Inventario">
<row name="id" null="1" autoincrement="1">
<datatype>tinyint</datatype>
<default>NULL</default></row>
<key type="PRIMARY" name="">
<part>id</part>
</key>
</table>
<table x="616" y="479" name="Item">
<row name="id" null="1" autoincrement="1">
<datatype>tinyint</datatype>
<default>NULL</default></row>
<row name="individualidade" null="1" autoincrement="0">
<datatype>tinyint</datatype>
<default>NULL</default></row>
<key type="PRIMARY" name="">
<part>id</part>
</key>
</table>
<table x="387" y="393" name="inventario_x_item">
<row name="id" null="1" autoincrement="1">
<datatype>tinyint</datatype>
<default>NULL</default></row>
<row name="id_Inventario" null="1" autoincrement="0">
<datatype>tinyint</datatype>
<default>NULL</default><relation table="Inventario" row="id" />
</row>
<row name="id_Item" null="1" autoincrement="0">
<datatype>tinyint</datatype>
<default>NULL</default><relation table="Item" row="id" />
</row>
<key type="PRIMARY" name="">
<part>id</part>
</key>
</table>
<table x="859" y="34" name="Elfo Noturno">
<row name="id" null="1" autoincrement="1">
<datatype>tinyint</datatype>
<default>NULL</default></row>
<row name="id_Elfo" null="1" autoincrement="0">
<datatype>tinyint</datatype>
<default>NULL</default><relation table="Elfo" row="id" />
</row>
<key type="PRIMARY" name="">
<part>id</part>
</key>
</table>
<table x="882" y="220" name="Elfos Verdes">
<row name="id" null="1" autoincrement="1">
<datatype>tinyint</datatype>
<default>NULL</default></row>
<row name="id_Elfo" null="1" autoincrement="0">
<datatype>tinyint</datatype>
<default>NULL</default><relation table="Elfo" row="id" />
</row>
<key type="PRIMARY" name="">
<part>id</part>
</key>
</table>
<table x="889" y="124" name="Elfos da Luz">
<row name="id" null="1" autoincrement="1">
<datatype>tinyint</datatype>
<default>NULL</default></row>
<row name="id_Elfo" null="1" autoincrement="0">
<datatype>tinyint</datatype>
<default>NULL</default><relation table="Elfo" row="id" />
</row>
<key type="PRIMARY" name="">
<part>id</part>
</key>
</table>
<table x="801" y="350" name="Dwarf Barba Longa">
<row name="id" null="1" autoincrement="1">
<datatype>tinyint</datatype>
<default>NULL</default></row>
<row name="id_Dwarf" null="1" autoincrement="0">
<datatype>tinyint</datatype>
<default>NULL</default><relation table="Dwarf" row="id" />
</row>
<key type="PRIMARY" name="">
<part>id</part>
</key>
</table>
</sql>
